{
    "apps": [{
      "name": "web-builder",
      "watch": true,
      "ignore_watch" : [".git", "node_modules", "content", "views"],
      "watch_options": {
        "persistent": true,
        "ignoreInitial": true,
        "usePolling": true
      },
      "script": "./index.js",
      "instances": 1,
      "post-deploy": "npm install",
      "env": {
        "PORT": 80,
        "NODE_ENV": "dev"
      }
    }]
  }